{
    "res": {
        "static/css/gzx/gzx-v1.less": {
            "uri": "/static/css/gzx/gzx-v1.css",
            "type": "css",
            "pkg": "p0"
        },
        "static/scripts/gzx/gzx.js": {
            "uri": "/static/scripts/gzx/gzx.js",
            "type": "js"
        },
        "static/scripts/gzx/highcharts.js": {
            "uri": "/static/scripts/gzx/highcharts.js",
            "type": "js"
        }
    },
    "pkg": {
        "p0": {
            "uri": "/static/css/gzx/gzx.css",
            "type": "css",
            "has": [
                "static/css/gzx/gzx-v1.less"
            ]
        }
    }
}