{
    "res": {
        "static/css/app/meitalk/meitalk.less": {
            "uri": "/static/css/app/meitalk/meitalk.css",
            "type": "css",
            "pkg": "p0"
        },
        "static/scripts/app/meitalk/meitalk.js": {
            "uri": "/static/scripts/app/meitalk/meitalk.js",
            "type": "js"
        }
    },
    "pkg": {
        "p0": {
            "uri": "/static/css/app/meitalk/meitalk.css",
            "type": "css",
            "has": [
                "static/css/app/meitalk/meitalk.less"
            ]
        }
    }
}