{
    "res": {
        "static/css/center/center.less": {
            "uri": "/static/css/center/center.css",
            "type": "css",
            "pkg": "p0"
        },
        "static/public/sea-modules/arale/base/1.1.1/base-debug.js": {
            "uri": "/static/public/sea-modules/arale/base/1.1.1/base-debug.js",
            "type": "js",
            "deps": [
                "arale/class/1.1.0/class-debug",
                "arale/events/1.1.0/events-debug",
                "./aspect-debug",
                "./attribute-debug"
            ]
        },
        "static/public/sea-modules/arale/base/1.1.1/base.js": {
            "uri": "/static/public/sea-modules/arale/base/1.1.1/base.js",
            "type": "js"
        },
        "static/public/sea-modules/arale/class/1.1.0/class-debug.js": {
            "uri": "/static/public/sea-modules/arale/class/1.1.0/class-debug.js",
            "type": "js"
        },
        "static/public/sea-modules/arale/class/1.1.0/class.js": {
            "uri": "/static/public/sea-modules/arale/class/1.1.0/class.js",
            "type": "js"
        },
        "static/public/sea-modules/arale/dialog/1.3.0/confirmbox-debug.js": {
            "uri": "/static/public/sea-modules/arale/dialog/1.3.0/confirmbox-debug.js",
            "type": "js",
            "deps": [
                "$-debug",
                "./dialog-debug",
                "./confirmbox-debug.handlebars",
                "static/public/sea-modules/arale/dialog/1.3.0/dialog-debug.css",
                "arale/overlay/1.1.4/overlay-debug",
                "arale/overlay/1.1.4/mask-debug",
                "arale/events/1.1.0/events-debug",
                "arale/templatable/0.9.2/templatable-debug",
                "arale/dialog/1.3.0/dialog-debug.handlebars",
                "gallery/handlebars/1.0.2/runtime-debug"
            ]
        },
        "static/public/sea-modules/arale/dialog/1.3.0/confirmbox.js": {
            "uri": "/static/public/sea-modules/arale/dialog/1.3.0/confirmbox.js",
            "type": "js"
        },
        "static/public/sea-modules/arale/dialog/1.3.0/dialog-debug.css": {
            "uri": "/static/public/sea-modules/arale/dialog/1.3.0/dialog-debug.css",
            "type": "css"
        },
        "static/public/sea-modules/arale/dialog/1.3.0/dialog-debug.js": {
            "uri": "/static/public/sea-modules/arale/dialog/1.3.0/dialog-debug.js",
            "type": "js",
            "deps": [
                "$-debug",
                "arale/overlay/1.1.4/overlay-debug",
                "arale/overlay/1.1.4/mask-debug",
                "arale/events/1.1.0/events-debug",
                "arale/templatable/0.9.2/templatable-debug",
                "./dialog-debug.handlebars",
                "gallery/handlebars/1.0.2/runtime-debug",
                "static/public/sea-modules/arale/dialog/1.3.0/dialog-debug.css"
            ]
        },
        "static/public/sea-modules/arale/dialog/1.3.0/dialog.css": {
            "uri": "/static/public/sea-modules/arale/dialog/1.3.0/dialog.css",
            "type": "css"
        },
        "static/public/sea-modules/arale/dialog/1.3.0/dialog.js": {
            "uri": "/static/public/sea-modules/arale/dialog/1.3.0/dialog.js",
            "type": "js",
            "deps": [
                "static/public/sea-modules/arale/dialog/1.3.0/dialog.css"
            ]
        },
        "static/public/sea-modules/arale/easing/1.0.0/easing-debug.js": {
            "uri": "/static/public/sea-modules/arale/easing/1.0.0/easing-debug.js",
            "type": "js",
            "deps": [
                "$-debug"
            ]
        },
        "static/public/sea-modules/arale/easing/1.0.0/easing.js": {
            "uri": "/static/public/sea-modules/arale/easing/1.0.0/easing.js",
            "type": "js"
        },
        "static/public/sea-modules/arale/events/1.1.0/events-debug.js": {
            "uri": "/static/public/sea-modules/arale/events/1.1.0/events-debug.js",
            "type": "js"
        },
        "static/public/sea-modules/arale/events/1.1.0/events.js": {
            "uri": "/static/public/sea-modules/arale/events/1.1.0/events.js",
            "type": "js"
        },
        "static/public/sea-modules/arale/iframe-shim/1.0.2/iframe-shim-debug.js": {
            "uri": "/static/public/sea-modules/arale/iframe-shim/1.0.2/iframe-shim-debug.js",
            "type": "js",
            "deps": [
                "$-debug",
                "arale/position/1.0.1/position-debug"
            ]
        },
        "static/public/sea-modules/arale/iframe-shim/1.0.2/iframe-shim.js": {
            "uri": "/static/public/sea-modules/arale/iframe-shim/1.0.2/iframe-shim.js",
            "type": "js"
        },
        "static/public/sea-modules/arale/overlay/1.1.4/mask-debug.js": {
            "uri": "/static/public/sea-modules/arale/overlay/1.1.4/mask-debug.js",
            "type": "js",
            "deps": [
                "$-debug",
                "./overlay-debug",
                "arale/position/1.0.1/position-debug",
                "arale/iframe-shim/1.0.2/iframe-shim-debug",
                "arale/widget/1.1.1/widget-debug"
            ]
        },
        "static/public/sea-modules/arale/overlay/1.1.4/mask.js": {
            "uri": "/static/public/sea-modules/arale/overlay/1.1.4/mask.js",
            "type": "js"
        },
        "static/public/sea-modules/arale/overlay/1.1.4/overlay-debug.js": {
            "uri": "/static/public/sea-modules/arale/overlay/1.1.4/overlay-debug.js",
            "type": "js",
            "deps": [
                "$-debug",
                "arale/position/1.0.1/position-debug",
                "arale/iframe-shim/1.0.2/iframe-shim-debug",
                "arale/widget/1.1.1/widget-debug"
            ]
        },
        "static/public/sea-modules/arale/overlay/1.1.4/overlay.js": {
            "uri": "/static/public/sea-modules/arale/overlay/1.1.4/overlay.js",
            "type": "js"
        },
        "static/public/sea-modules/arale/position/1.0.1/position-debug.js": {
            "uri": "/static/public/sea-modules/arale/position/1.0.1/position-debug.js",
            "type": "js",
            "deps": [
                "$-debug"
            ]
        },
        "static/public/sea-modules/arale/position/1.0.1/position.js": {
            "uri": "/static/public/sea-modules/arale/position/1.0.1/position.js",
            "type": "js"
        },
        "static/public/sea-modules/arale/switchable/1.0.2/accordion-debug.js": {
            "uri": "/static/public/sea-modules/arale/switchable/1.0.2/accordion-debug.js",
            "type": "js",
            "deps": [
                "./switchable-debug",
                "$-debug",
                "arale/widget/1.1.1/widget-debug",
                "arale/switchable/1.0.2/plugins/effects-debug",
                "arale/switchable/1.0.2/plugins/autoplay-debug",
                "arale/switchable/1.0.2/plugins/circular-debug",
                "arale/easing/1.0.0/easing-debug"
            ]
        },
        "static/public/sea-modules/arale/switchable/1.0.2/accordion.js": {
            "uri": "/static/public/sea-modules/arale/switchable/1.0.2/accordion.js",
            "type": "js"
        },
        "static/public/sea-modules/arale/switchable/1.0.2/carousel-debug.js": {
            "uri": "/static/public/sea-modules/arale/switchable/1.0.2/carousel-debug.js",
            "type": "js",
            "deps": [
                "./switchable-debug",
                "$-debug",
                "arale/widget/1.1.1/widget-debug",
                "arale/switchable/1.0.2/plugins/effects-debug",
                "arale/switchable/1.0.2/plugins/autoplay-debug",
                "arale/switchable/1.0.2/plugins/circular-debug",
                "arale/easing/1.0.0/easing-debug"
            ]
        },
        "static/public/sea-modules/arale/switchable/1.0.2/carousel.js": {
            "uri": "/static/public/sea-modules/arale/switchable/1.0.2/carousel.js",
            "type": "js"
        },
        "static/public/sea-modules/arale/switchable/1.0.2/slide-debug.js": {
            "uri": "/static/public/sea-modules/arale/switchable/1.0.2/slide-debug.js",
            "type": "js",
            "deps": [
                "./switchable-debug",
                "$-debug",
                "arale/widget/1.1.1/widget-debug",
                "arale/switchable/1.0.2/plugins/effects-debug",
                "arale/switchable/1.0.2/plugins/autoplay-debug",
                "arale/switchable/1.0.2/plugins/circular-debug",
                "arale/easing/1.0.0/easing-debug"
            ]
        },
        "static/public/sea-modules/arale/switchable/1.0.2/slide.js": {
            "uri": "/static/public/sea-modules/arale/switchable/1.0.2/slide.js",
            "type": "js"
        },
        "static/public/sea-modules/arale/switchable/1.0.2/switchable-debug.js": {
            "uri": "/static/public/sea-modules/arale/switchable/1.0.2/switchable-debug.js",
            "type": "js",
            "deps": [
                "$-debug",
                "arale/widget/1.1.1/widget-debug",
                "./plugins/effects-debug",
                "./plugins/autoplay-debug",
                "./plugins/circular-debug",
                "arale/easing/1.0.0/easing-debug",
                "arale/switchable/1.0.2/plugins/effects-debug"
            ]
        },
        "static/public/sea-modules/arale/switchable/1.0.2/switchable.js": {
            "uri": "/static/public/sea-modules/arale/switchable/1.0.2/switchable.js",
            "type": "js"
        },
        "static/public/sea-modules/arale/switchable/1.0.2/tabs-debug.js": {
            "uri": "/static/public/sea-modules/arale/switchable/1.0.2/tabs-debug.js",
            "type": "js",
            "deps": [
                "./switchable-debug",
                "$-debug",
                "arale/widget/1.1.1/widget-debug",
                "arale/switchable/1.0.2/plugins/effects-debug",
                "arale/switchable/1.0.2/plugins/autoplay-debug",
                "arale/switchable/1.0.2/plugins/circular-debug",
                "arale/easing/1.0.0/easing-debug"
            ]
        },
        "static/public/sea-modules/arale/switchable/1.0.2/tabs.js": {
            "uri": "/static/public/sea-modules/arale/switchable/1.0.2/tabs.js",
            "type": "js"
        },
        "static/public/sea-modules/arale/templatable/0.9.2/templatable-debug.js": {
            "uri": "/static/public/sea-modules/arale/templatable/0.9.2/templatable-debug.js",
            "type": "js",
            "deps": [
                "$-debug",
                "gallery/handlebars/1.0.2/handlebars-debug"
            ]
        },
        "static/public/sea-modules/arale/templatable/0.9.2/templatable.js": {
            "uri": "/static/public/sea-modules/arale/templatable/0.9.2/templatable.js",
            "type": "js"
        },
        "static/public/sea-modules/arale/widget/1.1.1/widget-debug.js": {
            "uri": "/static/public/sea-modules/arale/widget/1.1.1/widget-debug.js",
            "type": "js",
            "deps": [
                "arale/base/1.1.1/base-debug",
                "$-debug",
                "./daparser-debug",
                "./auto-render-debug"
            ]
        },
        "static/public/sea-modules/arale/widget/1.1.1/widget.js": {
            "uri": "/static/public/sea-modules/arale/widget/1.1.1/widget.js",
            "type": "js"
        },
        "static/public/sea-modules/gallery/handlebars/1.0.2/handlebars-debug.js": {
            "uri": "/static/public/sea-modules/gallery/handlebars/1.0.2/handlebars-debug.js",
            "type": "js"
        },
        "static/public/sea-modules/gallery/handlebars/1.0.2/handlebars.js": {
            "uri": "/static/public/sea-modules/gallery/handlebars/1.0.2/handlebars.js",
            "type": "js"
        },
        "static/public/sea-modules/gallery/handlebars/1.0.2/runtime-debug.js": {
            "uri": "/static/public/sea-modules/gallery/handlebars/1.0.2/runtime-debug.js",
            "type": "js"
        },
        "static/public/sea-modules/gallery/handlebars/1.0.2/runtime.js": {
            "uri": "/static/public/sea-modules/gallery/handlebars/1.0.2/runtime.js",
            "type": "js"
        },
        "static/public/sea-modules/jquery/jquery/1.9.1/jquery-debug.js": {
            "uri": "/static/public/sea-modules/jquery/jquery/1.9.1/jquery-debug.js",
            "type": "js"
        },
        "static/public/sea-modules/jquery/jquery/1.9.1/jquery.js": {
            "uri": "/static/public/sea-modules/jquery/jquery/1.9.1/jquery.js",
            "type": "js"
        },
        "static/public/sea-modules/m/share/1.0.0/img/share.css": {
            "uri": "/static/public/sea-modules/m/share/1.0.0/img/share.css",
            "type": "css"
        },
        "static/public/sea-modules/m/share/1.0.0/share.js": {
            "uri": "/static/public/sea-modules/m/share/1.0.0/share.js",
            "type": "js",
            "deps": [
                "m/share/1.0.0/img/share.css"
            ]
        },
        "static/public/sea-modules/m/ui/silder-banner/1.0.0/silder-banner.js": {
            "uri": "/static/public/sea-modules/m/ui/silder-banner/1.0.0/silder-banner.js",
            "type": "js",
            "deps": [
                "$"
            ]
        },
        "static/public/sea-modules/m/ui/tabswitch/1.0.0/tabswitch.js": {
            "uri": "/static/public/sea-modules/m/ui/tabswitch/1.0.0/tabswitch.js",
            "type": "js",
            "deps": [
                "$"
            ]
        },
        "static/public/sea-modules/sea-config.js": {
            "uri": "/static/public/sea-modules/sea-config.js",
            "type": "js"
        },
        "static/public/sea-modules/seajs/seajs-style/1.0.2/seajs-style-debug.js": {
            "uri": "/static/public/sea-modules/seajs/seajs-style/1.0.2/seajs-style-debug.js",
            "type": "js"
        },
        "static/public/sea-modules/seajs/seajs-style/1.0.2/seajs-style.js": {
            "uri": "/static/public/sea-modules/seajs/seajs-style/1.0.2/seajs-style.js",
            "type": "js"
        },
        "static/public/sea-modules/seajs/seajs/2.2.1/sea-debug.js": {
            "uri": "/static/public/sea-modules/seajs/seajs/2.2.1/sea-debug.js",
            "type": "js"
        },
        "static/public/sea-modules/seajs/seajs/2.2.1/sea.js": {
            "uri": "/static/public/sea-modules/seajs/seajs/2.2.1/sea.js",
            "type": "js"
        },
        "static/public/sea-modules/ui/jscrollpane/2.0.19/jquery.jscrollpane.css": {
            "uri": "/static/public/sea-modules/ui/jscrollpane/2.0.19/jquery.jscrollpane.css",
            "type": "css"
        },
        "static/public/sea-modules/ui/jscrollpane/2.0.19/jquery.jscrollpane.js": {
            "uri": "/static/public/sea-modules/ui/jscrollpane/2.0.19/jquery.jscrollpane.js",
            "type": "js",
            "deps": [
                "static/public/sea-modules/ui/jscrollpane/2.0.19/jquery.jscrollpane.css"
            ]
        },
        "static/public/sea-modules/ui/jscrollpane/2.0.19/jquery.jscrollpane.min.js": {
            "uri": "/static/public/sea-modules/ui/jscrollpane/2.0.19/jquery.jscrollpane.min.js",
            "type": "js"
        },
        "static/public/sea-modules/ui/jscrollpane/2.0.19/jquery.mousewheel.js": {
            "uri": "/static/public/sea-modules/ui/jscrollpane/2.0.19/jquery.mousewheel.js",
            "type": "js"
        },
        "static/public/sea-modules/ui/jscrollpane/2.0.19/jscrollpane.js": {
            "uri": "/static/public/sea-modules/ui/jscrollpane/2.0.19/jscrollpane.js",
            "type": "js",
            "deps": [
                "$",
                "ui/jscrollpane/2.0.19/jquery.jscrollpane.css",
                "ui/jscrollpane/2.0.19/jquery.jscrollpane.min",
                "ui/jscrollpane/2.0.19/jquery.mousewheel"
            ]
        },
        "static/public/sea-modules/ui/jscrollpane/2.0.19/mwheelIntent.js": {
            "uri": "/static/public/sea-modules/ui/jscrollpane/2.0.19/mwheelIntent.js",
            "type": "js"
        },
        "static/scripts/center/centerFed.js": {
            "uri": "/static/scripts/center/centerFed.js",
            "type": "js",
            "pkg": "p1"
        }
    },
    "pkg": {
        "p0": {
            "uri": "/static/css/center/center.css",
            "type": "css",
            "has": [
                "static/css/center/center.less"
            ]
        },
        "p1": {
            "uri": "/static/scripts/center/centerFed.js",
            "type": "js",
            "has": [
                "static/scripts/center/centerFed.js"
            ]
        }
    }
}