{
    "res": {
        "static/css/common/common-src/common.css": {
            "uri": "/static/css/common/common-src/common.css",
            "type": "css"
        },
        "static/css/common/common-src/common.less": {
            "uri": "/static/css/common/common-src/common.css",
            "type": "css",
            "pkg": "p0"
        },
        "static/scripts/common/common-src/common-topbar.js": {
            "uri": "/static/scripts/common/common-src/common-topbar.js",
            "type": "js",
            "pkg": "p1"
        },
        "static/scripts/common/common-src/common.js": {
            "uri": "/static/scripts/common/common-src/common.js",
            "type": "js",
            "pkg": "p1"
        }
    },
    "pkg": {
        "p0": {
            "uri": "/static/css/common/common-src.css",
            "type": "css",
            "has": [
                "static/css/common/common-src/common.less"
            ]
        },
        "p1": {
            "uri": "/static/scripts/common/common-src.js",
            "type": "js",
            "has": [
                "static/scripts/common/common-src/common.js",
                "static/scripts/common/common-src/common-topbar.js"
            ]
        }
    }
}